ISSS608-VAA - Take-Home Exercise 4
…
ggplotly(fig4)

Ridgeline plot

merchTotalMillsImport <- subset(merchTotalMills, Type == "Import")
merchTotalMillsExport <- subset(merchTotalMills, Type == "Export")

merchTotalMillsImport

# A tibble: 36 × 7
   `Data Series` Period   Type   `Amount (M)` Date       Year  Month
   <chr>         <chr>    <chr>         <dbl> <date>     <chr> <chr>
 1 Total         2020 Jan Import           41 2020-01-01 20    Jan  
 2 Total         2020 Feb Import           39 2020-02-01 20    Feb  
 3 Total         2020 Mar Import           40 2020-03-01 20    Mar  
 4 Total         2020 Apr Import           36 2020-04-01 20    Apr  
 5 Total         2020 May Import           31 2020-05-01 20    May  
 6 Total         2020 Jun Import           35 2020-06-01 20    Jun  
 7 Total         2020 Jul Import           38 2020-07-01 20    Jul  
 8 Total         2020 Aug Import           36 2020-08-01 20    Aug  
 9 Total         2020 Sep Import           39 2020-09-01 20    Sep  
10 Total         2020 Oct Import           38 2020-10-01 20    Oct  
# … with 26 more rows

merchTotalMillsExport

# A tibble: 36 × 7
   `Data Series` Period   Type   `Amount (M)` Date       Year  Month
   <chr>         <chr>    <chr>         <dbl> <date>     <chr> <chr>
 1 Total         2020 Jan Export           45 2020-01-01 20    Jan  
 2 Total         2020 Feb Export           44 2020-02-01 20    Feb  
 3 Total         2020 Mar Export           46 2020-03-01 20    Mar  
 4 Total         2020 Apr Export           40 2020-04-01 20    Apr  
 5 Total         2020 May Export           36 2020-05-01 20    May  
 6 Total         2020 Jun Export           41 2020-06-01 20    Jun  
 7 Total         2020 Jul Export           43 2020-07-01 20    Jul  
 8 Total         2020 Aug Export           44 2020-08-01 20    Aug  
 9 Total         2020 Sep Export           44 2020-09-01 20    Sep  
10 Total         2020 Oct Export           44 2020-10-01 20    Oct  
# … with 26 more rows
…
